<?xml version="1.0" encoding="UTF-8"?>
<session version="1.0">
<refactoring accessors="true" comment="Delete element from project &apos;MainActivity&apos;&#x0D;&#x0A;- Original project: &apos;MainActivity&apos;&#x0D;&#x0A;- Original element: &apos;project.properties&apos;" description="Delete element" element1="project.properties" elements="0" flags="589830" id="org.eclipse.jdt.ui.delete" resources="1" stamp="1402195516180" subPackages="false" version="1.0"/>
</session>